…
## {html_node}
## <div class="col-md-12">
## [1] <div class="table-responsive">\n<div>\n<table class="table table-sm table ...

Illness_table <- Illness_node %>% html_table() %>% select(-(RETURNED))
colnames(Illness_table)[colnames(Illness_table) %in% c('INJURED ON','DAYS MISSED')] <- c('Illness_year','Illess_days_missed')
Illness_table$Illness_year <- substr(Illness_table$Illness_year,nchar(Illness_table$Illness_year)-3,nchar(Illness_table$Illness_year))
Illness_table %>% mutate(across(starts_with("Illness"),
                                ~ as.numeric(as.character(.))))

## Warning in mask$eval_all_mutate(quo): 强制改变过程中产生了NA

## # A tibble: 429 × 4
##    PLAYER           TEAM      Illness_year Illess_days_missed
##    <chr>            <chr>            <dbl> <chr>             
##  1 Jeremy Sochan    Spurs             2022 3                 
##  2 Paul George      Clippers          2022 2                 
##  3 Serge Ibaka      Bucks             2022 1                 
##  4 Luca Vildoza     Bucks             2022 2                 
##  5 Frank Ntilikina  Mavericks         2022 15                
##  6 Donovan Mitchell Jazz              2022 6                 
##  7 Serge Ibaka      Bucks             2022 6                 
##  8 Paul Millsap     76ers             2022 5                 
##  9 Dejounte Murray  Spurs             2022 9                 
## 10 Marquese Chriss  Mavericks         2022 2                 
## # … with 419 more rows
